<?xml version="1.0" encoding="UTF-8" standalone="no"?>
<svg
   xmlns:dc="http://purl.org/dc/elements/1.1/"
   xmlns:cc="http://creativecommons.org/ns#"
   xmlns:rdf="http://www.w3.org/1999/02/22-rdf-syntax-ns#"
   xmlns:svg="http://www.w3.org/2000/svg"
   xmlns="http://www.w3.org/2000/svg"
   width="24"
   height="24"
   viewBox="0 0 6.3499999 6.3500002"
   version="1.1"
   id="svg862">
  <defs
     id="defs856" />
  <metadata
     id="metadata859">
    <rdf:RDF>
      <cc:Work
         rdf:about="">
        <dc:format>image/svg+xml</dc:format>
        <dc:type
           rdf:resource="http://purl.org/dc/dcmitype/StillImage" />
        <dc:title></dc:title>
      </cc:Work>
    </rdf:RDF>
  </metadata>
  <g
     transform="matrix(0.14191456,0,0,0.14191456,-11.200607,-16.444688)"
     id="layer1">
    <g
       id="g1479"
       transform="translate(0.88721103,-49.013245)">
      <circle
         r="22.372616"
         cy="187.26324"
         cx="100.41041"
         id="path880"
         style="opacity:1;fill:#1167b1;fill-opacity:1;stroke:none;stroke-width:0.25476977;stroke-miterlimit:4;stroke-dasharray:none;stroke-opacity:1" />
      <g
         style="stroke:#ffffff"
         id="g1428-9"
         transform="matrix(0.71914335,0,0,0.71914335,71.315362,68.901372)">
        <circle
           style="opacity:1;fill:none;fill-opacity:1;stroke:#ffffff;stroke-width:2.07272029;stroke-miterlimit:4;stroke-dasharray:none;stroke-opacity:1"
           id="path947-3"
           cx="40.45792"
           cy="146.42731"
           r="3.3163528" />
        <path
           style="fill:#00ff00;stroke:#ffffff;stroke-width:3;stroke-linecap:round;stroke-linejoin:miter;stroke-miterlimit:4;stroke-dasharray:none;stroke-opacity:1"
           d="m 40.428798,151.10998 0.05825,34.46869"
           id="path949-6" />
        <g
           style="stroke:#ffffff"
           transform="matrix(0,0.92241445,-0.92241445,0,170.79251,143.68639)"
           id="g1290-3-0">
          <path
             id="path949-5-6"
             d="m 29.012244,126.32965 c 17.394025,2.26066 18.921215,26.70468 0.06681,29.93419"
             style="fill:none;stroke:#ffffff;stroke-width:3.25233412;stroke-linecap:round;stroke-linejoin:miter;stroke-miterlimit:4;stroke-dasharray:none;stroke-opacity:1" />
        </g>
        <g
           style="stroke:#ffffff"
           id="g1418-2"
           transform="translate(-0.0242541,0.06681738)">
          <path
             id="path949-9-1-6"
             d="m 58.124273,170.01894 c 0,0 -1.97674,-2.70947 -3.71073,-2.72766 -1.866822,-0.0196 -4.103486,2.85167 -4.103486,2.85167"
             style="fill:none;stroke:#ffffff;stroke-width:3.2193141;stroke-linecap:round;stroke-linejoin:miter;stroke-miterlimit:4;stroke-dasharray:none;stroke-opacity:1" />
          <path
             id="path949-9-1-7-1"
             d="m 30.655835,170.01894 c 0,0 -2.110462,-2.70641 -3.71073,-2.72766 -1.600268,-0.0212 -4.103486,2.85167 -4.103486,2.85167"
             style="fill:none;stroke:#ffffff;stroke-width:3.2193141;stroke-linecap:round;stroke-linejoin:miter;stroke-miterlimit:4;stroke-dasharray:none;stroke-opacity:1" />
        </g>
        <path
           style="fill:#00ff00;stroke:#ffffff;stroke-width:3;stroke-linecap:round;stroke-linejoin:miter;stroke-miterlimit:4;stroke-dasharray:none;stroke-opacity:1"
           d="m 47.258354,157.71917 -13.600866,0.0668"
           id="path949-0-8" />
      </g>
    </g>
  </g>
</svg>
